…
The Manifesto Project: manifestoR
The Manifesto Project collects and organizes political party manifestos from around the world. It currently covers over 1000 parties from 1945 until today in over 50 countries on five continents. We can use the manifestoR package to access the API and download those manifestos for analysis in R.

Load library and set API key
Accessing data from the Manifesto Project API requires an authentication key. You can create an account and key here. Here I store my key in .Rprofile and retrieve it using mp_setapikey().

library(manifestoR)

# retrieve API key stored in .Rprofile
mp_setapikey(key = getOption("manifesto_key"))
Retrieve the database
(mpds <- mp_maindataset())
## Connecting to Manifesto Project DB API... 
## Connecting to Manifesto Project DB API... corpus version: 2018-2
## # A tibble: 4,388 x 174
##    country countryname oecdmember eumember edate        date party
##      <dbl> <chr>            <dbl>    <dbl> <date>      <dbl> <dbl>
##  1      11 Sweden               0        0 1944-09-17 194409 11220
##  2      11 Sweden               0        0 1944-09-17 194409 11320
##  3      11 Sweden               0        0 1944-09-17 194409 11420
##  4      11 Sweden               0        0 1944-09-17 194409 11620
##  5      11 Sweden               0        0 1944-09-17 194409 11810
##  6      11 Sweden               0        0 1948-09-19 194809 11220
##  7      11 Sweden               0        0 1948-09-19 194809 11320
##  8      11 Sweden               0        0 1948-09-19 194809 11420
##  9      11 Sweden               0        0 1948-09-19 194809 11620
## 10      11 Sweden               0        0 1948-09-19 194809 11810
## # … with 4,378 more rows, and 167 more variables: partyname <chr>,
## #   partyabbrev <chr>, parfam <dbl>, coderid <dbl>, manual <dbl>,
## #   coderyear <dbl>, testresult <dbl>, testeditsim <dbl>, pervote <dbl>,
## #   voteest <dbl>, presvote <dbl>, absseat <dbl>, totseats <dbl>,
## #   progtype <dbl>, datasetorigin <dbl>, corpusversion <chr>, total <dbl>,
## #   peruncod <dbl>, per101 <dbl>, per102 <dbl>, per103 <dbl>,
## #   per104 <dbl>, per105 <dbl>, per106 <dbl>, per107 <dbl>, per108 <dbl>,
## #   per109 <dbl>, per110 <dbl>, per201 <dbl>, per202 <dbl>, per203 <dbl>,
## #   per204 <dbl>, per301 <dbl>, per302 <dbl>, per303 <dbl>, per304 <dbl>,
…
Census data with tidycensus
tidycensus provides an interface with the US Census Bureau’s decennial census and American Community APIs and returns tidy data frames with optional simple feature geometry. These APIs require a free key you can obtain here. Rather than storing your key in .Rprofile, tidycensus includes census_api_key() which automatically stores your key in .Renviron, which is basically a global version of .Rprofile. Anything stored in .Renviron is automatically loaded anytime you initiate R on your computer, regardless of the project or file location. Once you get your key, load it:

library(tidycensus)
census_api_key("YOUR API KEY GOES HERE")
Obtaining data
get_decennial() allows you to obtain data from the 1990, 2000, and 2010 decennial US censuses. Let’s look at the number of individuals of Asian ethnicity by state in 2010:

asia10 <- get_decennial(geography = "state", variables = "P008006", year = 2010)
## Getting data from the 2010 decennial Census
asia10
## # A tibble: 52 x 4
##    GEOID NAME        variable   value
##    <chr> <chr>       <chr>      <dbl>
##  1 01    Alabama     P008006    53595
##  2 02    Alaska      P008006    38135
##  3 04    Arizona     P008006   176695
##  4 05    Arkansas    P008006    36102
##  5 06    California  P008006  4861007
##  6 22    Louisiana   P008006    70132
##  7 21    Kentucky    P008006    48930
##  8 08    Colorado    P008006   139028
##  9 09    Connecticut P008006   135565
## 10 10    Delaware    P008006    28549
## # … with 42 more rows
…
ggplot(asia10, aes(x = reorder(NAME, value), y = value)) +
  geom_point() +
  coord_flip()


Of course this graph is not entirely useful since it is based on the raw frequency of Asian individuals. California is at the top of the list, but it is also the most populous city. Instead, we could normalize this value as a percentage of the entire state population. To do that, we need to retrieve another variable:

asia_pop <- get_decennial(geography = "state",
                          variables = c("P008006", "P008001"),
                          year = 2010) %>%
  spread(variable, value) %>%
  mutate(pct_asia = P008006 / P008001)
## Getting data from the 2010 decennial Census
asia_pop
## # A tibble: 52 x 5
##    GEOID NAME                  P008001 P008006 pct_asia
##    <chr> <chr>                   <dbl>   <dbl>    <dbl>
##  1 01    Alabama               4779736   53595   0.0112
##  2 02    Alaska                 710231   38135   0.0537
##  3 04    Arizona               6392017  176695   0.0276
##  4 05    Arkansas              2915918   36102   0.0124
##  5 06    California           37253956 4861007   0.130 
##  6 08    Colorado              5029196  139028   0.0276
##  7 09    Connecticut           3574097  135565   0.0379
##  8 10    Delaware               897934   28549   0.0318
##  9 11    District of Columbia   601723   21056   0.0350
## 10 12    Florida              18801310  454821   0.0242
## # … with 42 more rows
ggplot(asia_pop, aes(x = reorder(NAME, pct_asia), y = pct_asia)) +
  geom_point() +
  scale_y_continuous(labels = scales::percent) +
  coord_flip()


get_acs() retrieves data from the American Community Survey. This survey is administered to a sample of 3 million households on an annual basis, so the data points are estimates characterized by a margin of error. tidycensus returns both the original estimate and margin of error. Let’s get median household income data from the 2012-2016 ACS for counties in Illinois.

usa_inc <- get_acs(geography = "state", 
                   variables = c(medincome = "B19013_001"), 
                   year = 2016)
## Getting data from the 2012-2016 5-year ACS
usa_inc
## # A tibble: 52 x 5
##    GEOID NAME                 variable  estimate   moe
##    <chr> <chr>                <chr>        <dbl> <dbl>
##  1 01    Alabama              medincome    44758   314
##  2 02    Alaska               medincome    74444   809
##  3 04    Arizona              medincome    51340   231
##  4 05    Arkansas             medincome    42336   234
##  5 06    California           medincome    63783   188
##  6 08    Colorado             medincome    62520   287
##  7 09    Connecticut          medincome    71755   473
##  8 10    Delaware             medincome    61017   723
##  9 11    District of Columbia medincome    72935  1164
## 10 12    Florida              medincome    48900   200
## # … with 42 more rows
…
